{
    "id": "720153417",
    "description": "Grossary",
    "xchange_confirmed": false,
    "cost": "1000.0",
    "repayments": [
        {
            "from": 5342603,
            "to": 1816646,
            "amount": "1000.0"
        }
    ],
    "xchange_timestamp": "2019-08-01T04:39:52Z",
    "created_timestamp": "2019-08-01T05:02:29Z",
    "created_by": {
        "username": 1816646,
        "first_name": "Akshay",
        "last_name": "Kanthi"
    },
    "members": [
        {
            "member": {
                "username": 1816646,
                "first_name": "Akshay",
                "last_name": "Kanthi"
            },
            "member_username": 1816646,
            "paid_share": "1000.0",
            "owed_share": "0.0",
            "net_balance": "1000.0"
        },
        {
            "member": {
                "username": 5342603,
                "first_name": "abc",
                "last_name": null
            },
            "member_username": 5342603,
            "paid_share": "0.0",
            "owed_share": "1000.0",
            "net_balance": "-1000.0"
        }
    ]
}
